(module Adafruit_Sharp_Memory_Display_1.3in (layer F.Cu) (tedit 6148C95B)
  (fp_text reference REF** (at 0 0.5) (layer F.SilkS)
    (effects (font (size 1 1) (thickness 0.15)))
  )
  (fp_text value Adafruit_Sharp_Memory_Display_1.3in (at 0 -0.5) (layer F.Fab)
    (effects (font (size 1 1) (thickness 0.15)))
  )
  (fp_line (start 14.732 -19.558) (end -14.732 -19.558) (layer Dwgs.User) (width 0.12))
  (fp_line (start -14.732 19.558) (end 14.732 19.558) (layer Dwgs.User) (width 0.12))
  (fp_line (start -14.732 -19.558) (end -14.732 19.558) (layer Dwgs.User) (width 0.12))
  (fp_line (start 14.732 -19.558) (end 14.732 19.558) (layer Dwgs.User) (width 0.12))
  (fp_circle (center 17.018 -16.558) (end 20.018 -16.558) (layer Dwgs.User) (width 0.12))
  (fp_line (start 14.732 -19.558) (end 17.018 -19.558) (layer Dwgs.User) (width 0.12))
  (fp_line (start 17.018 -13.558) (end 14.7 -13.558) (layer Dwgs.User) (width 0.12))
  (fp_circle (center 17.018 16.558) (end 20.018 16.558) (layer Dwgs.User) (width 0.12))
  (fp_line (start 17.018 13.558) (end 14.7 13.558) (layer Dwgs.User) (width 0.12))
  (fp_line (start 17.018 19.558) (end 14.732 19.558) (layer Dwgs.User) (width 0.12))
  (fp_circle (center -17.018 16.558) (end -14.018 16.558) (layer Dwgs.User) (width 0.12))
  (fp_line (start -17.018 19.558) (end -14.732 19.558) (layer Dwgs.User) (width 0.12))
  (fp_line (start -17.018 13.558) (end -14.7 13.558) (layer Dwgs.User) (width 0.12))
  (fp_circle (center -17.018 -16.558) (end -14.018 -16.558) (layer Dwgs.User) (width 0.12))
  (fp_line (start -17.018 -19.558) (end -14.732 -19.558) (layer Dwgs.User) (width 0.12))
  (fp_line (start -17.018 -13.558) (end -14.7 -13.558) (layer Dwgs.User) (width 0.12))
  (pad "" thru_hole circle (at -17.018 -16.558) (size 4.7 4.7) (drill 3) (layers *.Cu *.Mask)
    (zone_connect 1))
  (pad "" thru_hole circle (at 17.018 -16.558) (size 4.7 4.7) (drill 3) (layers *.Cu *.Mask)
    (zone_connect 1))
  (pad "" thru_hole circle (at 17.018 16.558) (size 4.7 4.7) (drill 3) (layers *.Cu *.Mask)
    (zone_connect 1))
  (pad "" thru_hole circle (at -17.018 16.558) (size 4.7 4.7) (drill 3) (layers *.Cu *.Mask)
    (zone_connect 1))
  (pad 1 thru_hole circle (at -10.16 17.018) (size 1.524 1.524) (drill 0.762) (layers *.Cu *.Mask))
  (pad 2 thru_hole circle (at -7.62 17.018) (size 1.524 1.524) (drill 0.762) (layers *.Cu *.Mask))
  (pad 3 thru_hole circle (at -5.08 17.018) (size 1.524 1.524) (drill 0.762) (layers *.Cu *.Mask))
  (pad 4 thru_hole circle (at -2.54 17.018) (size 1.524 1.524) (drill 0.762) (layers *.Cu *.Mask))
  (pad 5 thru_hole circle (at 0 17.018) (size 1.524 1.524) (drill 0.762) (layers *.Cu *.Mask))
  (pad 6 thru_hole circle (at 2.54 17.018) (size 1.524 1.524) (drill 0.762) (layers *.Cu *.Mask))
  (pad 7 thru_hole circle (at 5.08 17.018) (size 1.524 1.524) (drill 0.762) (layers *.Cu *.Mask))
  (pad 8 thru_hole circle (at 7.62 17.018) (size 1.524 1.524) (drill 0.762) (layers *.Cu *.Mask))
  (pad 9 thru_hole circle (at 10.16 17.018) (size 1.524 1.524) (drill 0.762) (layers *.Cu *.Mask))
  (model "${KIPRJMOD}/adafruit-memory-lcd.pretty/3502 Sharp Memory Display Breakout.step"
    (offset (xyz 20 -19.5 7.8))
    (scale (xyz 1 1 1))
    (rotate (xyz 0 0 0))
  )
  (model ${KIPRJMOD}/adafruit-memory-lcd.pretty/mounting-standoff-m25-6mm.step
    (offset (xyz 17 -16.5 0))
    (scale (xyz 1 1 1))
    (rotate (xyz 0 0 0))
  )
  (model ${KIPRJMOD}/adafruit-memory-lcd.pretty/mounting-standoff-m25-6mm.step
    (offset (xyz 17 16.5 0))
    (scale (xyz 1 1 1))
    (rotate (xyz 0 0 0))
  )
  (model ${KIPRJMOD}/adafruit-memory-lcd.pretty/mounting-standoff-m25-6mm.step
    (offset (xyz -17 16.5 0))
    (scale (xyz 1 1 1))
    (rotate (xyz 0 0 0))
  )
  (model ${KIPRJMOD}/adafruit-memory-lcd.pretty/mounting-standoff-m25-6mm.step
    (offset (xyz -17 -16.5 0))
    (scale (xyz 1 1 1))
    (rotate (xyz 0 0 0))
  )
)
